\relax 
\providecommand\babel@aux[2]{}
\@nameuse{bbl@beforestart}
\catcode `"\active 
\catcode `-\active 
\abx@aux@refcontext{none/global//global/global}
\providecommand\hyper@newdestlabel[2]{}
\providecommand\HyperFirstAtBeginDocument{\AtBeginDocument}
\HyperFirstAtBeginDocument{\ifx\hyper@anchor\@undefined
\global\let\oldnewlabel\newlabel
\gdef\newlabel#1#2{\newlabelxx{#1}#2}
\gdef\newlabelxx#1#2#3#4#5#6{\oldnewlabel{#1}{{#2}{#3}}}
\AtEndDocument{\ifx\hyper@anchor\@undefined
\let\newlabel\oldnewlabel
\fi}
\fi}
\global\let\hyper@last\relax 
\gdef\HyperFirstAtBeginDocument#1{#1}
\providecommand\HyField@AuxAddToFields[1]{}
\providecommand\HyField@AuxAddToCoFields[2]{}
\babel@aux{czech}{}
\abx@aux@cite{0}{4}
\abx@aux@segm{0}{0}{4}
\abx@aux@cite{0}{1}
\abx@aux@segm{0}{0}{1}
\abx@aux@cite{0}{4}
\abx@aux@segm{0}{0}{4}
\abx@aux@cite{0}{1}
\abx@aux@segm{0}{0}{1}
\abx@aux@cite{0}{2}
\abx@aux@segm{0}{0}{2}
\abx@aux@cite{0}{2}
\abx@aux@segm{0}{0}{2}
\abx@aux@cite{0}{3}
\abx@aux@segm{0}{0}{3}
\abx@aux@cite{0}{1}
\abx@aux@segm{0}{0}{1}
\abx@aux@cite{0}{3}
\abx@aux@segm{0}{0}{3}
\abx@aux@cite{0}{3}
\abx@aux@segm{0}{0}{3}
\abx@aux@cite{0}{5}
\abx@aux@segm{0}{0}{5}
\@writefile{lof}{\contentsline {figure}{\numberline {1}{\ignorespaces Výstup z Galacticy~\blx@tocontentsinit {0}\cite {3}}}{3}{figure.1}\protected@file@percent }
\newlabel{vystup}{{1}{3}{Výstup z Galacticy~\cite {3}}{figure.1}{}}
\abx@aux@cite{0}{6}
\abx@aux@segm{0}{0}{6}
\abx@aux@cite{0}{7}
\abx@aux@segm{0}{0}{7}
\babel@aux{czech}{}
\babel@aux{czech}{}
\babel@aux{czech}{}
\babel@aux{czech}{}
\babel@aux{czech}{}
\babel@aux{czech}{}
\babel@aux{czech}{}
\babel@aux{czech}{}
\babel@aux{czech}{}
\babel@aux{czech}{}
\babel@aux{czech}{}
\babel@aux{czech}{}
\babel@aux{czech}{}
\babel@aux{czech}{}
\babel@aux{czech}{}
\babel@aux{czech}{}
\babel@aux{czech}{}
\babel@aux{czech}{}
\babel@aux{czech}{}
\babel@aux{czech}{}
\babel@aux{czech}{}
\babel@aux{czech}{}
\babel@aux{czech}{}
\babel@aux{czech}{}
\babel@aux{czech}{}
\babel@aux{czech}{}
\babel@aux{czech}{}
\babel@aux{czech}{}
\babel@aux{czech}{}
\babel@aux{czech}{}
\babel@aux{czech}{}
\babel@aux{czech}{}
\babel@aux{czech}{}
\babel@aux{czech}{}
\babel@aux{czech}{}
\babel@aux{czech}{}
\babel@aux{czech}{}
\babel@aux{czech}{}
\babel@aux{czech}{}
\babel@aux{czech}{}
\babel@aux{czech}{}
\babel@aux{czech}{}
\babel@aux{czech}{}
\babel@aux{czech}{}
\babel@aux{czech}{}
\babel@aux{czech}{}
\babel@aux{czech}{}
\babel@aux{czech}{}
\abx@aux@read@bbl@mdfivesum{FEBB3A0FB1D59042B3182479028D8754}
\abx@aux@defaultrefcontext{0}{4}{none/global//global/global}
\abx@aux@defaultrefcontext{0}{1}{none/global//global/global}
\abx@aux@defaultrefcontext{0}{2}{none/global//global/global}
\abx@aux@defaultrefcontext{0}{3}{none/global//global/global}
\abx@aux@defaultrefcontext{0}{5}{none/global//global/global}
\abx@aux@defaultrefcontext{0}{6}{none/global//global/global}
\abx@aux@defaultrefcontext{0}{7}{none/global//global/global}
\abx@aux@defaultrefcontext{0}{9}{none/global//global/global}
\gdef \@abspage@last{5}
